Neuroscore data
…
NSR <- NSR %>% mutate(`BOP (psi)` = replace(`BOP (psi)`, is.na(`BOP (psi)`),'T'))
colnames(NSR)[3:7]<- c("A","B","C","D","E")
longerNSR <- pivot_longer(NSR, names_to = "time_point" , 
             values_to = "score",
             cols = c(3:7))
colnames(longerNSR)[1:2]<-c("ID","BOP")

sham <- longerNSR %>% 
  filter(BOP == "X" | BOP == "x")
trauma <- longerNSR %>%
  filter((BOP == "T"))
sham

## # A tibble: 310 x 4
##       ID BOP   time_point score
##    <dbl> <chr> <chr>      <dbl>
##  1   232 X     A              0
##  2   232 X     B             NA
##  3   232 X     C             NA
##  4   232 X     D             NA
##  5   232 X     E             NA
##  6   241 X     A             NA
##  7   241 X     B             NA
##  8   241 X     C             NA
##  9   241 X     D             NA
## 10   241 X     E             NA
## #  with 300 more rows

trauma

## # A tibble: 430 x 4
##       ID BOP   time_point score
##    <dbl> <chr> <chr>      <dbl>
##  1   218 T     A             NA
##  2   218 T     B              2
##  3   218 T     C             NA
##  4   218 T     D             NA
##  5   218 T     E             NA
##  6   219 T     A             NA
##  7   219 T     B              0
##  8   219 T     C             NA
##  9   219 T     D             NA
## 10   219 T     E             NA
## #  with 420 more rows
…
